<svg xmlns="http://www.w3.org/2000/svg" width="32.998" height="34.434" viewBox="0 0 32.998 34.434">
    <g id="request-fill" transform="translate(-16.991)">
        <path id="Path_8" data-name="Path 8" d="M35.514,211.511l-3.791,2.3,3.791,2.155Z"
            transform="translate(-13.711 -197.331)" fill="#d9702d" />
        <path id="Path_9" data-name="Path 9" d="M429.25,214.062l-3.725-2.26v4.386Z"
            transform="translate(-380.312 -197.601)" fill="#d9702d" />
        <path id="Path_10" data-name="Path 10"
            d="M116.447,0V20.289l9.608,5.484,9.645-5.528V0ZM127.17,19.88H125V17.7h2.167Zm-.049-4.076h-2.07V13.3a1.893,1.893,0,0,1,1.437-1.833,1.652,1.652,0,0,0-.283-3.248,1.647,1.647,0,0,0-1.763,1.647h-2.07a3.75,3.75,0,0,1,1.18-2.727,3.673,3.673,0,0,1,2.795-.994,3.732,3.732,0,0,1,.774,7.3V15.8Z"
            transform="translate(-92.566)" fill="#d9702d" />
        <path id="Path_11" data-name="Path 11"
            d="M45.225,273.033l-11.46,6.556-.274.157-.275-.157-11.425-6.51-4.8-2.735v16.671h33V270.308Z"
            transform="translate(0 -252.581)" fill="#d9702d" />
    </g>
</svg>
