<svg xmlns="http://www.w3.org/2000/svg" width="31" height="33" viewBox="0 0 31 33">
    <g id="Group_34" data-name="Group 34" transform="translate(262 -745)">
        <g id="Rectangle_47" data-name="Rectangle 47" transform="translate(-262 765)" fill="none"
            stroke="#8e9ab5" stroke-width="2">
            <rect width="9.5" height="13" rx="3" stroke="none" />
            <rect x="1" y="1" width="7.5" height="11" rx="2" fill="none" />
        </g>
        <g id="Rectangle_48" data-name="Rectangle 48" transform="translate(-251.25 745)" fill="none"
            stroke="#8e9ab5" stroke-width="2">
            <rect width="9.5" height="33" rx="3" stroke="none" />
            <rect x="1" y="1" width="7.5" height="31" rx="2" fill="none" />
        </g>
        <g id="Rectangle_49" data-name="Rectangle 49" transform="translate(-240.5 758)" fill="none"
            stroke="#8e9ab5" stroke-width="2">
            <rect width="9.5" height="20" rx="3" stroke="none" />
            <rect x="1" y="1" width="7.5" height="18" rx="2" fill="none" />
        </g>
    </g>
</svg>
